area_code,LONG,LAT,life_satisfaction,worthwhile,happiness,anxiety
E07000004,-0.87746,51.9004,7.77,7.94,7.33,3.05
E07000005,-0.62112,51.6789,8.02,8.16,7.95,2.95
E07000006,-0.5848399999999999,51.5594,7.89,7.84,7.62,3.18
E07000007,-0.80883,51.6662,7.62,8.0,7.29,3.37
E07000008,0.126436,52.2002,7.75,7.71,7.33,2.6
E07000009,0.283163,52.3579,7.9,8.23,8.03,2.9
E07000010,0.009016,52.5354,7.68,8.06,7.06,2.7
E07000011,-0.22466999999999998,52.3532,7.77,7.83,7.43,2.95
E07000012,0.091017,52.1081,7.91,7.91,7.77,2.77
E07000026,-3.28096,54.6852,8.13,8.32,8.06,2.38
E07000027,-3.19976,54.1574,7.43,7.51,7.19,3.4
E07000028,-2.80705,54.9787,7.66,7.83,7.37,3.37
E07000029,-3.37664,54.4662,7.98,8.11,7.61,2.63
E07000030,-2.62678,54.6311,7.95,8.2,7.57,2.7
E07000031,-2.7810799999999998,54.2991,8.08,8.12,7.75,2.74
E07000032,-1.4621899999999999,53.0288,7.79,7.84,7.71,2.58
E07000033,-1.2722799999999999,53.2388,6.88,7.14,6.89,3.42
E07000034,-1.40115,53.2557,7.73,7.85,7.58,2.21
E07000035,-1.70711,53.1233,8.1,8.01,7.95,2.39
E07000036,-1.3509,52.9382,7.66,8.1,7.73,2.89
E07000037,-1.84398,53.3857,7.68,7.96,7.53,2.79
E07000038,-1.4425299999999999,53.1624,7.4,7.56,7.23,2.85
E07000039,-1.53494,52.8249,7.93,8.07,7.42,2.53
E07000040,-3.22381,50.7576,7.89,8.23,7.96,2.66
E07000041,-3.5137199999999997,50.7178,8.0,8.11,7.45,3.07
E07000042,-3.5921199999999995,50.8688,7.97,8.21,7.69,2.89
E07000043,-3.92691,51.0761,7.97,8.24,7.91,3.1
E07000044,-3.8199400000000003,50.3719,7.95,8.13,7.65,2.75
E07000045,-3.6539599999999997,50.6102,7.79,8.11,7.88,2.41
E07000046,-4.2173099999999994,50.908,7.66,7.74,7.53,2.37
E07000047,-4.03357,50.6649,7.64,7.89,7.29,2.92
E07000061,0.25869899999999996,50.7741,7.76,7.81,7.43,2.72
E07000062,0.579429,50.8677,7.61,7.89,7.3,2.66
E07000063,0.007670999999999999,50.8334,7.66,7.8,7.42,2.96
E07000064,0.543064,50.9487,7.84,8.03,7.66,2.7
E07000065,0.20515300000000003,50.9332,7.88,7.91,7.51,2.89
E07000066,0.475055,51.5904,7.7,7.76,7.52,2.69
E07000067,0.575911,51.9163,7.74,7.84,7.82,2.72
E07000068,0.290091,51.6411,7.64,7.67,7.58,2.55
E07000069,0.588084,51.5616,7.47,7.88,7.37,2.84
E07000070,0.491163,51.735,7.83,8.0,7.78,2.51
E07000071,0.859776,51.876999999999995,7.6,7.87,7.72,2.29
E07000072,0.154147,51.7128,7.44,7.65,7.4,2.98
E07000073,0.10388800000000001,51.7661,7.02,7.38,7.44,2.93
E07000074,0.773857,51.7757,7.69,7.63,7.93,2.68
E07000075,0.683473,51.5909,7.47,7.49,7.55,2.41
E07000076,1.1091799999999998,51.8569,7.75,7.84,7.46,2.26
E07000077,0.294485,51.9359,7.77,7.97,7.51,2.21
E07000078,-2.07515,51.8986,7.46,7.56,7.29,2.82
E07000079,-1.97059,51.7725,7.94,8.15,7.76,2.69
E07000080,-2.47755,51.8125,7.39,7.64,7.11,3.49
E07000081,-2.23263,51.8464,7.55,7.68,7.55,2.64
E07000082,-2.3082,51.72,7.63,7.81,7.45,2.91
E07000083,-2.19998,51.9348,7.77,7.97,7.59,2.72
E07000084,-1.22021,51.2594,7.68,7.96,7.35,2.82
E07000085,-0.93971,51.0577,7.71,8.0,7.63,2.63
E07000086,-1.32943,50.9487,7.81,8.05,7.68,2.55
E07000087,-1.23742,50.8539,7.5,7.82,7.59,2.74
E07000088,-1.16725,50.8064,7.76,7.72,7.52,2.75
E07000089,-0.88321,51.282,8.14,8.24,7.95,2.35
E07000090,-1.004,50.8723,7.91,7.97,7.62,2.73
E07000091,-1.58936,50.8575,7.84,7.99,7.94,2.78
E07000092,-0.76807,51.2781,7.77,7.83,7.55,2.01
E07000093,-1.50214,51.1342,7.66,7.85,7.52,2.8
E07000094,-1.24393,51.03,8.03,7.85,7.66,2.75
E07000095,-0.050730000000000004,51.7208,7.48,7.89,7.14,3.43
E07000096,-0.55098,51.7685,7.74,7.99,7.6,2.7
E07000098,-0.26899,51.6802,7.63,7.87,7.12,3.51
E07000099,-0.22314,51.9574,7.76,7.99,7.53,2.78
E07000102,-0.45005,51.6563,7.84,7.88,7.59,3.14
E07000103,-0.40429,51.6717,7.5,7.87,7.4,2.9
E07000105,0.8233739999999999,51.131,7.76,8.05,7.68,2.47
E07000106,1.09626,51.281000000000006,7.73,8.11,7.09,2.88
E07000107,0.24527600000000002,51.4337,7.37,7.93,7.53,2.43
E07000108,1.27693,51.2117,7.7,8.1,7.03,3.25
E07000109,0.398744,51.3965,7.54,7.83,7.77,2.24
E07000110,0.5840609999999999,51.2357,7.96,7.83,7.75,2.89
E07000111,0.188936,51.2756,7.91,8.1,7.72,2.68
E07000112,1.0008,51.0722,7.68,7.84,7.58,2.17
E07000113,0.7795300000000001,51.3239,7.71,8.1,7.34,2.43
E07000114,1.3283,51.3525,7.6,7.68,7.32,2.94
E07000115,0.349306,51.2606,7.71,7.86,7.43,2.51
E07000116,0.471632,51.1025,7.85,7.97,7.55,2.37
E07000117,-2.2308,53.7741,7.73,7.94,7.52,3.15
E07000118,-2.61921,53.6724,7.6,7.87,7.79,2.24
E07000119,-2.91902,53.7971,7.76,8.1,7.78,2.67
E07000120,-2.38964,53.7565,7.51,7.91,7.64,2.46
E07000121,-2.6603,54.07899999999999,7.72,7.99,7.58,2.36
E07000122,-2.1895700000000002,53.8864,7.38,7.87,7.72,3.58
E07000123,-2.71817,53.821999999999996,7.61,7.7,7.22,2.62
E07000124,-2.4174,53.9245,8.04,8.45,8.21,2.59
E07000125,-2.2614900000000002,53.6848,7.67,7.99,7.31,3.11
E07000126,-2.72873,53.7267,7.98,8.14,7.8,2.43
E07000127,-2.8689299999999998,53.6128,7.67,8.0,7.06,3.26
E07000128,-2.80462,53.8999,7.54,7.59,7.48,2.46
E07000129,-1.19887,52.5771,8.0,8.2,8.06,2.33
E07000130,-1.13694,52.7399,7.63,7.73,7.53,2.68
E07000131,-0.9022899999999999,52.5377,7.97,7.98,7.73,2.93
E07000132,-1.41755,52.6088,7.77,7.88,7.63,3.23
E07000133,-0.8544,52.8033,7.77,7.97,7.68,2.95
E07000134,-1.4220899999999999,52.7425,7.61,7.92,7.38,2.48
E07000135,-1.093,52.5887,7.85,8.04,7.46,2.54
E07000136,-0.11218,52.9779,6.96,7.37,7.43,2.06
E07000137,0.020549,53.2648,7.62,7.88,7.47,2.4
E07000138,-0.55848,53.2192,7.17,7.49,7.2,3.11
E07000139,-0.4767,53.0806,7.98,8.13,7.74,2.51
E07000140,-0.03058,52.7876,7.61,7.78,7.15,2.22
E07000141,-0.49565,52.8489,7.87,7.97,7.76,2.78
E07000142,-0.50774,53.4004,7.75,8.01,7.8,2.49
E07000143,0.818716,52.5942,7.73,7.89,7.46,3.16
E07000144,1.25233,52.6962,7.97,8.2,7.45,3.13
E07000145,1.6495,52.6844,7.89,7.92,7.76,2.78
E07000146,0.533258,52.7128,7.64,8.15,7.52,2.14
E07000147,1.13219,52.8338,7.42,7.77,7.43,2.21
E07000148,1.28498,52.6401,7.71,7.92,7.49,2.94
E07000149,1.37325,52.5122,7.87,8.01,7.8,2.85
E07000150,-0.7069,52.507,7.43,7.64,7.59,2.89
E07000151,-1.01447,52.3099,7.8,7.78,7.71,2.45
E07000152,-0.5092,52.4791,7.64,7.93,7.48,3.07
E07000153,-0.76773,52.4372,7.61,7.97,7.56,2.72
E07000154,-0.88121,52.2378,7.49,7.64,7.43,2.58
E07000155,-1.0812899999999999,52.1184,7.99,7.92,7.82,2.54
E07000156,-0.71425,52.2926,7.44,7.67,7.5,2.8
E07000163,-2.16168,54.0538,7.7,7.96,7.72,2.24
E07000164,-1.34049,54.3087,7.72,7.94,7.76,2.25
E07000165,-1.58161,54.0771,7.81,7.99,7.64,2.82
E07000166,-1.9855200000000002,54.3576,7.69,7.87,7.11,2.1
E07000167,-0.84277,54.2002,7.8,7.83,7.54,2.65
E07000168,-0.5278,54.3465,7.83,7.84,7.54,3.04
E07000169,-1.1290799999999999,53.7333,7.54,7.64,7.6,2.69
E07000170,-1.2542200000000001,53.0975,7.79,7.61,7.61,2.47
E07000171,-0.9787,53.356,7.68,7.69,7.81,2.38
E07000172,-1.25944,52.9721,7.73,7.95,7.42,2.77
E07000173,-1.11907,53.0243,7.69,7.92,7.62,2.68
E07000174,-1.17804,53.167,7.49,7.75,7.51,2.93
E07000175,-0.9464299999999999,53.1096,7.77,7.99,7.41,3.12
E07000176,-1.0109700000000001,52.9124,8.0,8.15,7.62,2.76
E07000177,-1.28506,51.8872,7.72,7.97,7.64,2.67
E07000178,-1.24405,51.7536,7.63,8.13,7.52,3.22
E07000179,-1.07847,51.6229,8.1,8.23,8.0,2.46
E07000180,-1.48543,51.6544,7.8,7.87,7.71,2.76
E07000181,-1.50292,51.8399,7.93,8.03,7.91,3.17
E07000187,-2.5417799999999997,51.1948,7.95,8.27,7.67,2.71
E07000188,-2.88251,51.1918,7.7,7.75,7.64,2.78
E07000189,-2.77588,50.983999999999995,7.73,7.84,7.43,2.85
E07000192,-1.9827700000000001,52.7017,7.75,7.86,6.92,2.67
E07000193,-1.8143799999999999,52.8365,7.64,7.73,7.61,2.36
E07000194,-1.76049,52.6962,7.74,7.97,7.79,2.66
E07000195,-2.32631,53.0034,7.39,7.48,7.16,3.28
E07000196,-2.15495,52.6969,7.65,8.16,7.39,2.7
E07000197,-2.16475,52.8479,7.73,8.0,7.62,2.4
E07000198,-1.9933400000000001,53.0692,8.04,8.55,7.88,2.53
E07000199,-1.68451,52.6203,7.3,7.62,7.23,2.44
E07000200,0.9162309999999999,52.0642,7.65,7.93,7.6,2.74
E07000202,1.16327,52.0579,7.14,7.62,7.27,3.25
E07000203,1.09695,52.2186,7.92,8.08,7.45,3.27
E07000207,-0.39441,51.361000000000004,7.39,7.58,7.32,3.04
E07000208,-0.26172,51.3395,7.75,8.17,7.82,2.77
E07000209,-0.56257,51.2537,7.84,7.94,7.62,2.72
E07000210,-0.30603,51.2275,7.84,8.26,7.89,2.88
E07000211,-0.19871,51.2585,7.69,7.49,7.53,2.76
E07000212,-0.53855,51.3927,7.27,7.6,7.11,3.48
E07000213,-0.46253999999999995,51.4155,7.7,8.01,7.39,3.36
E07000214,-0.68986,51.3361,8.11,8.08,7.43,3.21
E07000215,-0.04805,51.2358,7.94,7.82,7.84,2.99
E07000216,-0.62343,51.1569,7.82,8.01,7.61,2.56
E07000217,-0.57982,51.3084,7.49,7.82,7.3,2.63
E07000218,-1.6242,52.5648,7.67,7.69,7.18,2.41
E07000219,-1.47965,52.5009,7.77,7.96,7.7,1.84
E07000220,-1.31828,52.3823,7.71,7.81,7.66,2.42
E07000221,-1.63565,52.1615,7.89,8.11,7.71,2.26
E07000222,-1.58369,52.3014,7.57,7.8,7.61,2.36
E07000223,-0.32433,50.8457,7.83,7.73,7.54,2.6
E07000224,-0.64998,50.8432,7.85,8.17,7.68,2.4
E07000225,-0.7163,50.9418,7.91,8.0,7.92,2.8
E07000226,-0.19533,51.1236,7.79,7.81,7.55,2.87
E07000227,-0.38123,51.0027,7.95,8.04,7.72,2.95
E07000228,-0.10272,51.0595,7.88,7.95,7.69,2.64
E07000229,-0.40126999999999996,50.8331,7.77,7.97,7.62,2.8
E07000234,-2.0037599999999998,52.3617,7.88,7.7,7.36,3.04
E07000235,-2.33089,52.1676,7.75,7.91,7.54,2.99
E07000236,-1.9471,52.2854,7.82,8.04,7.69,2.5
E07000237,-2.21025,52.1948,7.69,7.51,7.31,2.81
E07000238,-2.01614,52.1289,7.8,7.8,7.9,2.35
E07000239,-2.23494,52.3853,7.67,7.68,7.41,2.91
E07000240,-0.3407,51.7736,7.75,7.96,7.16,3.04
E07000241,-0.18517999999999998,51.7609,7.89,7.93,7.5,2.74
E08000001,-2.47952,53.5845,7.56,7.88,7.41,2.98
E08000002,-2.3088,53.5931,7.65,7.8,7.53,2.97
E08000003,-2.23359,53.4701,7.35,7.63,7.31,2.99
E08000004,-2.05274,53.5577,7.19,7.45,7.19,3.14
E08000005,-2.14784,53.6074,7.48,7.69,7.31,2.88
E08000006,-2.38485,53.4793,7.5,7.74,7.23,2.79
E08000007,-2.12467,53.3912,7.59,7.85,7.41,2.83
E08000008,-2.077,53.4787,7.35,7.69,7.26,2.94
E08000009,-2.36572,53.4167,7.65,7.91,7.4,2.96
E08000010,-2.57247,53.5145,7.49,7.76,7.31,2.81
E08000011,-2.83297,53.4379,7.23,7.54,7.08,3.34
E08000012,-2.91364,53.4083,7.25,7.58,7.05,3.43
E08000013,-2.7031,53.4586,7.55,7.82,7.26,2.89
E08000014,-2.9920400000000003,53.4821,7.57,7.81,7.35,3.11
E08000015,-3.06502,53.3745,7.55,7.83,7.27,2.74
E08000016,-1.54925,53.5258,7.52,7.85,7.41,3.11
E08000017,-1.10894,53.527,7.48,7.81,7.45,2.76
E08000018,-1.28651,53.3955,7.38,7.79,7.21,3.2
E08000019,-1.54254,53.4036,7.4,7.74,7.4,3.16
E08000021,-1.65297,55.021,7.29,7.49,7.2,3.23
E08000022,-1.5092299999999998,55.028999999999996,7.49,7.71,7.26,3.0
E08000023,-1.44696,54.9699,7.52,7.66,7.2,2.98
E08000024,-1.43344,54.8572,7.51,7.8,7.27,3.15
E08000025,-1.8814099999999998,52.483999999999995,7.43,7.65,7.4,2.69
E08000026,-1.51908,52.4142,7.52,7.69,7.41,2.47
E08000027,-2.1017099999999997,52.4951,7.55,7.69,7.31,2.64
E08000028,-2.00771,52.5148,7.25,7.54,7.12,2.92
E08000029,-1.7155799999999999,52.431000000000004,7.58,7.81,7.48,2.61
E08000030,-1.9704400000000002,52.605,7.5,7.67,7.35,2.74
E08000031,-2.1274599999999997,52.5979,7.07,7.37,7.08,2.47
E08000032,-1.87389,53.8438,7.61,7.83,7.47,3.02
E08000033,-1.9618200000000001,53.7205,7.6,7.94,7.4,3.03
E08000034,-1.78085,53.6423,7.47,7.73,7.38,3.06
E08000035,-1.50736,53.8227,7.51,7.84,7.34,3.06
E08000036,-1.4209200000000002,53.6592,7.42,7.82,7.48,3.05
E09000002,0.12950599999999998,51.5455,7.33,7.56,7.24,3.15
E09000003,-0.21821,51.6111,7.58,7.94,7.46,2.31
E09000004,0.14621199999999998,51.4582,7.55,7.8,7.39,3.13
E09000005,-0.27568000000000004,51.5644,7.27,7.47,7.36,2.51
E09000006,0.039245999999999996,51.3727,7.7,7.96,7.48,2.79
E09000007,-0.16289,51.5431,7.29,7.56,7.22,3.21
E09000008,-0.07761,51.36600000000001,7.36,7.73,7.39,2.91
E09000009,-0.31406999999999996,51.5244,7.64,7.85,7.48,3.28
E09000010,-0.08147,51.6489,7.45,7.71,7.44,2.13
E09000011,0.050108,51.464,7.31,7.64,7.17,3.55
E09000012,-0.06045,51.5549,7.42,7.56,7.18,3.36
E09000013,-0.21736,51.4874,7.55,7.68,7.34,3.18
E09000014,-0.10667,51.5877,7.38,7.59,7.27,2.95
E09000015,-0.33603,51.5947,7.46,7.56,7.51,2.56
E09000016,0.235368,51.5652,7.58,7.73,7.28,3.0
E09000017,-0.44182,51.5366,7.63,7.85,7.31,3.04
E09000018,-0.37844,51.4624,7.63,7.83,7.56,3.21
E09000019,-0.10992,51.5455,7.36,7.47,7.16,3.22
E09000020,-0.18975999999999998,51.4964,7.65,7.74,7.46,3.12
E09000021,-0.28367,51.393,7.54,7.79,7.49,3.17
E09000022,-0.11385,51.4644,7.43,7.62,7.34,3.06
E09000023,-0.01733,51.4423,7.35,7.5,7.23,3.18
E09000024,-0.18867,51.4106,7.62,7.81,7.51,3.32
E09000025,0.027369,51.5313,7.56,7.91,7.56,2.69
E09000026,0.07008500000000001,51.5859,7.59,7.91,7.45,2.99
E09000027,-0.28914,51.4403,7.53,7.86,7.48,3.36
E09000028,-0.07309,51.4659,7.44,7.68,7.43,3.29
E09000029,-0.17227,51.3576,7.63,7.94,7.51,3.01
E09000030,-0.0364,51.5155,7.54,7.62,7.26,3.13
E09000031,-0.01881,51.5946,7.66,7.84,7.42,2.77
E09000032,-0.20021,51.4524,7.46,7.73,7.39,3.11
E09000033,-0.15295,51.5122,7.53,7.72,7.41,3.4
N09000001,-6.1776,54.6939,8.2,8.39,7.99,2.28
N09000002,-6.43455,54.3867,8.03,8.16,8.04,2.44
N09000003,-5.92535,54.5985,7.65,8.0,7.35,3.34
N09000004,-6.5996,55.0396,7.98,8.16,7.92,2.62
N09000005,-7.42064,54.809,7.71,8.0,7.48,3.15
N09000006,-7.5271,54.3852,8.37,8.37,8.26,2.16
N09000007,-6.03545,54.4975,7.65,7.83,7.69,3.52
N09000008,-6.14645,54.8646,8.17,8.28,8.03,2.33
N09000009,-6.8889,54.5527,8.19,8.48,7.91,2.42
N09000010,-6.08891,54.1495,7.88,8.09,7.84,2.53
N09000011,-5.6456800000000005,54.5641,7.52,7.57,7.32,3.04
S12000005,-3.7534400000000003,56.1472,7.59,7.79,7.38,2.96
S12000006,-4.028630000000001,55.0962,7.86,8.08,7.81,2.29
S12000008,-4.29057,55.4967,7.56,7.75,7.27,2.98
S12000010,-2.72435,55.9421,7.6,7.77,7.45,2.94
S12000011,-4.3606,55.7487,7.68,7.79,7.5,2.85
S12000013,-6.65722,58.1994,8.41,8.47,8.15,2.07
S12000014,-3.7706,55.996,7.73,7.98,7.61,2.6
S12000017,-4.660909999999999,57.5867,7.93,8.1,7.79,2.83
S12000018,-4.75387,55.9003,7.44,7.8,7.36,3.29
S12000019,-3.11738,55.8211,7.65,7.9,7.39,2.6
S12000020,-3.20187,57.4768,7.84,8.01,7.5,2.43
S12000021,-4.7247900000000005,55.7279,7.46,7.67,7.27,3.24
S12000023,-2.90028,58.9433,8.3,8.25,8.09,2.48
S12000026,-2.85866,55.5259,7.79,7.97,7.57,2.5
S12000027,-1.37344,60.505,7.88,8.08,7.72,2.38
S12000028,-4.72901,55.2301,7.64,7.93,7.55,3.0
S12000029,-3.8327199999999997,55.6045,7.77,7.84,7.37,2.63
S12000030,-4.32595,56.2495,7.7,7.92,7.56,2.82
S12000033,-2.20398,57.167,7.65,7.71,7.4,2.75
S12000034,-2.79205,57.2347,7.84,7.95,7.64,2.4
S12000035,-5.22114,56.2894,7.84,8.11,7.68,2.65
S12000036,-3.27826,55.9112,7.59,7.7,7.61,3.02
S12000038,-4.56834,55.8486,7.55,7.72,7.32,3.15
S12000039,-4.52074,56.0014,7.4,7.67,7.2,3.11
S12000040,-3.60909,55.8992,7.67,7.9,7.44,2.63
S12000041,-2.89189,56.7248,7.66,7.92,7.6,2.53
S12000042,-2.97095,56.4776,7.35,7.51,7.02,2.87
S12000045,-4.22417,55.9583,7.86,8.03,7.62,2.9
W06000001,-4.32291,53.2794,7.79,7.94,7.64,2.8
W06000002,-3.8155900000000003,52.8983,7.57,7.77,7.57,3.0
W06000003,-3.74646,53.1474,7.61,7.84,7.56,2.83
W06000004,-3.34761,53.0883,7.68,7.91,7.55,2.78
W06000005,-3.17605,53.215,7.65,7.81,7.46,2.61
W06000006,-2.9920299999999997,53.0017,7.62,7.75,7.39,2.87
W06000008,-3.9499400000000002,52.298,7.7,7.85,7.61,2.76
W06000009,-4.908180000000001,51.8551,7.68,7.91,7.57,2.65
W06000010,-4.2111,51.895,7.51,7.69,7.48,2.61
W06000011,-3.9672300000000003,51.6581,7.55,7.8,7.41,3.25
W06000012,-3.7463800000000003,51.6445,7.56,7.7,7.28,3.11
W06000013,-3.6135900000000003,51.5606,7.54,7.81,7.4,3.05
W06000014,-3.3980300000000003,51.4484,7.5,7.63,7.24,3.08
W06000015,-3.22212,51.5025,7.53,7.73,7.5,2.66
W06000016,-3.41359,51.6218,7.5,7.84,7.45,3.12
W06000018,-3.19753,51.65,7.37,7.71,7.39,3.21
W06000019,-3.18592,51.7536,7.39,7.55,7.29,3.29
W06000020,-3.0510099999999998,51.6984,7.41,7.68,7.3,2.92
W06000021,-2.9028,51.7783,7.66,7.91,7.59,2.92
W06000022,-2.8976900000000003,51.5823,7.46,7.74,7.22,3.07
W06000023,-3.4353300000000004,52.3486,7.62,7.81,7.47,2.88
W06000024,-3.36425,51.7486,7.4,7.73,7.17,3.28
E08000020,,,7.41,7.6,7.25,3.36
E07000097,,,7.6,7.95,7.28,3.42
E07000101,,,7.41,7.77,7.7,3.0
E07000201,,,7.85,8.03,7.63,3.46
E07000204,,,7.91,7.93,8.0,2.45
E07000205,,,7.54,7.82,7.34,2.98
E07000206,,,7.78,7.88,7.64,3.12
E07000048,,,7.22,7.35,7.51,2.78
E07000049,,,7.7,7.98,7.6,2.75
E07000050,,,7.93,8.09,7.93,2.38
E07000051,,,7.82,7.99,7.74,2.24
E07000052,,,7.96,8.2,7.91,2.24
E07000053,,,7.9,8.07,7.61,2.54
E07000190,,,7.54,7.75,7.26,3.08
S12000015,,,7.63,7.81,7.4,2.88
S12000046,,,7.46,7.71,7.17,3.19
S12000044,,,7.46,7.74,7.34,2.9
S12000024,,,7.82,7.93,7.69,2.79
